[{
	"url": "https://images.unsplash.com/photo-1531502428148-e5b0ee6d923a?ixlib=rb-0.3.5&ixid=eyJhcHBfaWQiOjEyMDd9&s=99a135435cb8603e8e92903dbad77c3d&auto=format&fit=crop&w=1349&q=80"
},
{
	"url": "https://images.unsplash.com/photo-1531502428148-e5b0ee6d923a?ixlib=rb-0.3.5&ixid=eyJhcHBfaWQiOjEyMDd9&s=99a135435cb8603e8e92903dbad77c3d&auto=format&fit=crop&w=1349&q=80"
},
{
	"url": "https://images.unsplash.com/photo-1531502428148-e5b0ee6d923a?ixlib=rb-0.3.5&ixid=eyJhcHBfaWQiOjEyMDd9&s=99a135435cb8603e8e92903dbad77c3d&auto=format&fit=crop&w=1349&q=80"
}]